"../../../../scim_sip/CBD1800194_D04_Mpc57xx/BSW/Os\\Os_Hal_Spinlock_Dsmc.h", line 97: warning (dcc:1824): explicit cast from 'ptr-to-volatile Os_Hal_SpinlockType' to 'uint32' discards volatile qualifier
"../../../../scim_sip/CBD1800194_D04_Mpc57xx/BSW/Os/Os_XSignal.c", line 870: warning (dcc:1824): explicit cast from 'ptr-to-const volatile Os_XSigParamsType' to 'ptr-to-const Os_XSigParamsType' discards volatile qualifier
"../../../../scim_sip/CBD1800194_D04_Mpc57xx/BSW/Os/Os_XSignal.c", line 872: warning (dcc:1824): explicit cast from 'const ptr-to-volatile Os_XSigOutputParamsType' to 'ptr-to-Os_XSigOutputParamsType' discards volatile qualifier
