"../../../SCIM_HD_T1/10_ApplicationLayer/01_CommonBuildSource/SCIM_LINMgr.c", line 1924: warning (dcc:1519): expression not used!
"../../../SCIM_HD_T1/10_ApplicationLayer/01_CommonBuildSource/SCIM_LINMgr.c", line 1925: warning (dcc:1519): expression not used!
"../../../SCIM_HD_T1/10_ApplicationLayer/01_CommonBuildSource/SCIM_LINMgr.c", line 1926: warning (dcc:1519): expression not used!
